Project 1: Data Exploration and Visualization
…
Visualization five(maybe using stacked bar plot compare two category of games within years )

## # A tibble: 170 x 4
## # Groups:   category [85]
##    game_type category                       n relfreq
##    <chr>     <chr>                      <int>   <dbl>
##  1 boardgame Abstract Strategy           1100   0.949
##  2 boardgame Action / Dexterity           739   0.940
##  3 boardgame Adventure                    717   0.572
##  4 boardgame Age of Reason                122   0.938
##  5 boardgame American Civil War           201   0.990
##  6 boardgame American Indian Wars          25   0.962
##  7 boardgame American Revolutionary War    58   0.935
##  8 boardgame American West                164   0.659
##  9 boardgame Ancient                      544   0.798
## 10 boardgame Animals                      782   0.897
## # ... with 160 more rows

## # A tibble: 170 x 4
## # Groups:   game_type [2]
##    game_type category                       n  relfreq
##    <chr>     <chr>                      <int>    <dbl>
##  1 boardgame Abstract Strategy           1100 0.0291  
##  2 boardgame Action / Dexterity           739 0.0196  
##  3 boardgame Adventure                    717 0.0190  
##  4 boardgame Age of Reason                122 0.00323 
##  5 boardgame American Civil War           201 0.00533 
##  6 boardgame American Indian Wars          25 0.000662
##  7 boardgame American Revolutionary War    58 0.00154 
##  8 boardgame American West                164 0.00435 
##  9 boardgame Ancient                      544 0.0144  
## 10 boardgame Animals                      782 0.0207  
## # ... with 160 more rows
…
## # A tibble: 103 x 4
## # Groups:   mechanic [52]
##    game_type mechanic                          n relfreq
##    <chr>     <chr>                         <int>   <dbl>
##  1 boardgame Acting                          148   0.886
##  2 boardgame Action / Movement Programming   223   0.593
##  3 boardgame Action Point Allowance System   731   0.621
##  4 boardgame Area-Impulse                     79   0.919
##  5 boardgame Area Control / Area Influence   969   0.736
##  6 boardgame Area Enclosure                  154   0.798
##  7 boardgame Area Movement                   794   0.823
##  8 boardgame Auction/Bidding                 839   0.798
##  9 boardgame Betting/Wagering                263   0.865
## 10 boardgame Campaign / Battle Card Driven   371   0.670
## # ... with 93 more rows

## # A tibble: 103 x 4
## # Groups:   game_type [2]
##    game_type mechanic                          n relfreq
##    <chr>     <chr>                         <int>   <dbl>
##  1 boardgame Acting                          148 0.00449
##  2 boardgame Action / Movement Programming   223 0.00676
##  3 boardgame Action Point Allowance System   731 0.0222 
##  4 boardgame Area-Impulse                     79 0.00239
##  5 boardgame Area Control / Area Influence   969 0.0294 
##  6 boardgame Area Enclosure                  154 0.00467
##  7 boardgame Area Movement                   794 0.0241 
##  8 boardgame Auction/Bidding                 839 0.0254 
##  9 boardgame Betting/Wagering                263 0.00797
## 10 boardgame Campaign / Battle Card Driven   371 0.0112 
## # ... with 93 more rows
…
